{
	"useConfigFiles": true,
	"vueVersion": "2",
	"cssPreprocessor": "sass",
	"plugins": {
		"@vue/cli-plugin-babel": {},
		"@vue/cli-plugin-eslint": {
			"config": "prettier",
			"lintOn": [
				"save",
				"commit"
			]
		},
		"@vue/cli-plugin-router": {
			"historyMode": true
		},
		"@vue/cli-plugin-vuex": {},
		"@vue/cli-plugin-unit-jest": {},
		"vue-cli-plugin-i18n": {}
	}
}